{"ignore" : ["sanggup",
"tentang",
"atas",
"menurut",
"demikian",
"di",
"sebenarnya",
"akut",
"setelah",
"setelahitu",
"lagi",
"melawan",
"semua",
"mengizinkan",
"memungkinkan",
"hampir",
"sendirian",
"sepanjang",
"sudah",
"juga",
"meskipun",
"selalu",
"saya",
"antara",
"diantara",
"sebuah",
"dan",
"lain",
"apasaja",
"siapasaja",
"bagaimanapun",
"apapun",
"lagian",
"manasaja",
"selain",
"muncul",
"menghargai",
"sesuai",
"adalah",
"cincin",
"sekitar",
"sebagai",
"kesamping",
"meminta",
"terkait",
"tersedia",
"jauh",
"sangat",
"menjadi",
"karena",
"menjadi",
"pernah",
"sebelum",
"sebelumnya",
"dibelakang",
"makhluk",
"percaya",
"dibawah",
"disamping",
"selain",
"terbaik",
"lebihbaik",
"antara",
"luar",
"sedikit",
"kedua",
"singkat",
"tapi",
"oleh",
"datang",
"bisa",
"tidakbisa",
"sebab",
"penyebab",
"sen",
"tertentu",
"pasti",
"perubahan",
"jelas",
"bersama",
"com",
"datang",
"tentang",
"karenaitu",
"mempertimbangkan",
"mengingat",
"berisi",
"mengandung",
"sesuai",
"bisa",
"tidakdapat",
"tentusaja",
"saatini",
"pastinya",
"dijelaskan",
"meskipun",
"melakukan",
"tidak",
"berbeda",
"melakukan",
"perbuatan",
"dilakukan",
"turun",
"kebawah",
"selama",
"setiap",
"edu",
"misalnya",
"delapan",
"antara",
"lain",
"ditempatlain",
"cukup",
"sepenuhnya",
"terutama",
"et",
"dll",
"eth",
"bahkan",
"pernah",
"setiap",
"semuaorang",
"segalasesuatu",
"dimanamana",
"ex",
"persis",
"contoh",
"kecuali",
"jauh",
"beberapa",
"kelima",
"pertama",
"lima",
"diikuti",
"berikut",
"untuk",
"bekas",
"dahulu",
"seterusnya",
"empat",
"dari",
"lebihlanjut",
"selanjutnya",
"mendapatkan",
"mendapat",
"diberikan",
"memberi",
"pergi",
"akan",
"punya",
"mendapat",
"salampembuka",
"memiliki",
"belum",
"terjadi",
"tidak",
"memiliki",
"tidakpunya",
"belumpernah",
"dia",
"diaadalah",
"halo",
"membantu",
"karenanya",
"nya",
"sini",
"disiniadalah",
"selanjutnya",
"denganini",
"disini",
"sesudahitu",
"dia",
"diri",
"hai",
"kesini",
"semoga",
"bagaimana",
"tetapijustru",
"namun",
"http",
"https",
"sayaakan",
"akuakan",
"sayam",
"sayasudah",
"yaitu",
"jika",
"diabaikan",
"segera",
"di",
"lantaran",
"inc",
"memang",
"menunjukkan",
"batin",
"sepanjang",
"sebagaigantinya",
"ke",
"batin",
"akus",
"sayat",
"ituakan",
"ini",
"diri",
"hanya",
"menjaga",
"terus",
"tahu",
"dikenal",
"terakhir",
"belakanganini",
"kemudian",
"akhir-akhir",
"palingsedikit",
"kurang",
"jangansampai",
"membiarkan",
"menyukai",
"mungkin",
"sedikit",
"melihat",
"mencari",
"terlihat",
"ltd",
"terutama",
"banyak",
"mungkin",
"saya",
"berarti",
"sementaraitu",
"hanya",
"mungkin",
"lebih",
"bahkan",
"paling",
"kebanyakan",
"banyak",
"harus",
"diri",
"nama",
"yaitu",
"nd",
"dekat",
"hampir",
"perlu",
"kebutuhan",
"tidak",
"takpernah",
"namun",
"baru",
"berikutnya",
"sembilan",
"takseorangpun",
"non",
"tidakada",
"maupun",
"biasanya",
"novel",
"sekarang",
"tempat",
"jelas",
"dari",
"mati",
"sering",
"oh",
"baik",
"tua",
"di",
"sekali",
"satu",
"yang",
"hanya",
"ke",
"atau",
"lain",
"oranglain",
"jikatidak",
"seharusnya",
"kami",
"milikkita",
"diri",
"diluar",
"lebih",
"secarakeseluruhan",
"sendiri",
"para",
"tertentu",
"terutama",
"per",
"mungkin",
"ditempatkan",
"silahkan",
"plus",
"mungkin",
"agaknya",
"menyediakan",
"cukup",
"quot",
"agak",
"rd",
"kembali",
"sangat",
"mengenai",
"terlepas",
"salam",
"relatif",
"masing-masing",
"kanan",
"kata",
"sama",
"gergaji",
"mengatakan",
"pepatah",
"kata",
"kedua",
"sekte",
"lihat",
"melihat",
"terlihat",
"tampak",
"tampaknya",
"terlihat",
"diri",
"bijaksana",
"mengirim",
"serius",
"tujuh",
"beberapa",
"akan",
"dia",
"harus",
"jangan",
"sejak",
"enam",
"begitu",
"beberapa",
"seseorang",
"entahbagaimana",
"someone",
"sesuatu",
"beberapawaktu",
"terkadang",
"agak",
"suatutempat",
"segera",
"maaf",
"ditentukan",
"menentukan",
"menspesifikasikan",
"masih",
"sub",
"sepertiitu",
"sup",
"yakin",
"mengambil",
"diambil",
"menceritakan",
"cenderung",
"th",
"dari",
"terima",
"terimakasih",
"thanks",
"bahwa",
"ituadalah",
"itudia",
"itu",
"mereka",
"milikmereka",
"mereka",
"diri",
"kemudian",
"situ",
"sana",
"ada",
"kemudian",
"demikian",
"karenaitu",
"dalamnya",
"kemudian",
"ini",
"mereka",
"merekaakan",
"mereka",
"merekamemiliki",
"berpikir",
"ketiga",
"ini",
"teliti",
"sepenuhnya",
"mereka",
"meskipun",
"tiga",
"melalui",
"sepanjang",
"melalui",
"demikian",
"untuk",
"bersama",
"terlalu",
"mengambil",
"terhadap",
"menuju",
"mencoba",
"benar-benar",
"mencoba",
"berusaha",
"duakali",
"dua",
"dibawah",
"sayangnya",
"kecualikalau",
"tidaksepertinya",
"sampai",
"naik",
"atas",
"kami",
"menggunakan",
"bekas",
"biasanya",
"nilai",
"berbagai",
"sangat",
"melalui",
"yaitu",
"vs",
"ingin",
"itu",
"tidak",
"cara",
"kita",
"kitaakan",
"kamiakan",
"kitapunya",
"selamatdatang",
"baik",
"pergi",
"yang",
"tidak",
"apa",
"apayang",
"terserah",
"kapan",
"mana",
"kapanpun",
"dimana",
"dimanapun",
"sedangkan",
"dimana",
"dimanapun",
"apakah",
"yang",
"sementara",
"kemana",
"siapa",
"siapayang",
"siapapun",
"seluruh",
"siapa",
"yang",
"mengapa",
"akan",
"rela",
"ingin",
"dengan",
"dalam",
"tanpa",
"tidakwo",
"bertanya-tanya",
"akan",
"tidakakan",
"www",
"iyanih",
"namun",
"kamu",
"andaakan",
"kamuakan",
"kamuadalah",
"kamupunya",
"anda",
"milikmu",
"dirimusendiri",
"dirimu",
"nol"]}