{"netral" : ["(o;",
"*)",
"8-)",
":-",
":-o",
":l",
":|",
";)",
";o)",
"mutlak",
"benar",
"terserap",
"menonjolkan",
"aktivis",
"sebenarnya",
"aktualitas",
"remaja",
"mempengaruhi",
"terpengaruh",
"udara",
"waspada",
"sepanjangwaktu",
"mengalegorisasikan",
"persekutuan",
"aliansi",
"kiasan",
"sindiran",
"baik",
"samasekali",
"memperkuat",
"analisis",
"semu",
"tampaknya",
"penampilan",
"menangkap",
"menilai",
"penilaian",
"anggapan",
"astronomis",
"sikap",
"rata-rata",
"sadar",
"kesadaran",
"bayi",
"padadasarnya",
"tongkat",
"kepercayaan",
"keyakinan",
"besar",
"darah",
"berbasisluas",
"tanpahenti",
"pusat",
"bersertifikat",
"nyanyian",
"klaim",
"rahasia",
"memikirkan",
"tanggungjawab",
"komentar",
"komentator",
"lengkap",
"samasekali",
"memahami",
"terpadu",
"curhat",
"dugaan",
"hatinurani",
"kesadaran",
"besar",
"sangat",
"pertimbangan",
"konstitusi",
"merenungkan",
"kontinu",
"perbaikan",
"tersembunyi",
"memutuskan",
"menyimpulkan",
"dalam",
"takdir",
"perbedaan",
"diplomasi",
"melihat",
"watak",
"jelas",
"dominan",
"benar-benar",
"dramatis",
"tugas",
"efektif",
"rumit",
"perwujudan",
"emosi",
"menekankan",
"mengikutsertakan",
"memikat",
"seluruh",
"kubu",
"evaluasi",
"khusus",
"harapan",
"menjelaskan",
"ekspresi",
"melakukantanpapersiapan",
"luas",
"alis",
"fakta",
"nyata",
"akrab",
"jauh",
"cepat",
"merasa",
"perasaan",
"terasa",
"merasa",
"akhirnya",
"perusahaan",
"tegas",
"tukangsuap",
"lantai",
"meramalkan",
"benteng",
"terusterang",
"sering",
"penuh",
"skalapenuh",
"sepenuhnya",
"mendasar",
"fundamental",
"didanai",
"menggembleng",
"gerakan",
"raksasa",
"memungut",
"sangat",
"pertumbuhan",
"setengah",
"berhenti",
"tugasberat",
"besardankuat",
"tinggi",
"bertenagatinggi",
"hm",
"hmm",
"menghipnotis",
"ide",
"menyalakan",
"imajinasi",
"membayangkan",
"segera",
"besarsekali",
"sangat",
"luasnya",
"imun",
"keharusan",
"imperatif",
"implisit",
"berarti",
"meningkat",
"makin",
"indikasi",
"indikatif",
"tidaklangsung",
"menular",
"mengambilkesimpulan",
"kesimpulan",
"mempengaruhi",
"informasi",
"inheren",
"firasat",
"banyaksekali",
"wawasan",
"berniat",
"intensif",
"maksud",
"niat",
"maksud",
"intim",
"intrik",
"terlepas",
"pertimbangan",
"penilaian",
"penilaian",
"kunci",
"tahu",
"penuharti",
"sadar",
"pengetahuan",
"besar",
"skalabesar",
"sebagianbesar",
"akhirnya",
"belajar",
"warisan",
"warisan",
"legalistik",
"kemungkinan",
"juga",
"takterbatas",
"utama",
"mantra",
"besar",
"masalah",
"biasa-biasasaja",
"kenangan",
"mentalitas",
"minor",
"mm",
"motif",
"pindah",
"bungkam",
"tidursebentar",
"lahir",
"alam",
"ygdiperlukan",
"tanpakekerasan",
"gagasan",
"nuansa",
"nuansa",
"kewajiban",
"jelas",
"baik",
"olimpiade",
"membuka-berakhir",
"pendapat",
"pendapat",
"ortodoksi",
"pandangan",
"sekaligus",
"terusterang",
"terbuka",
"overtures",
"menenangkan",
"persepsi",
"kegigihan",
"perspektif",
"berfilsafat",
"sangatpenting",
"pemain",
"pleno",
"titik",
"merenungkan",
"posisi",
"kemungkinan",
"mungkin",
"sikap",
"kekuasaan",
"praktis",
"berdoa",
"diprediksi",
"utama",
"tekanan",
"tekanan",
"lazim",
"terutama",
"utama",
"menyatakan",
"meramalkan",
"sebanding",
"proporsional",
"membuktikan",
"cepat",
"langka",
"jarang",
"reaksi",
"kesiapan",
"realisasi",
"dikenali",
"mencerminkan",
"menganggap",
"mengulangi",
"menegaskan",
"hubungan",
"ucapan",
"dapatdiperbaharui",
"penuh",
"terkenal",
"mengungkapkan",
"penyataan",
"teriakan",
"amat",
"meneliti",
"pengawasan",
"tampaknya",
"pemeriksaandiri",
"menunjukkan",
"sinyal",
"secarasederhana",
"ngantuk",
"bercakapseorangdiri",
"kedaulatan",
"spesifik",
"secarakhusus",
"berspekulasi",
"spekulasi",
"terentangjari",
"pendirian",
"sikap",
"berdiri",
"menggerakkan",
"kekuatan",
"kuatdariperkiraan",
"boneka",
"memabukkan",
"seharusnya",
"seandainya",
"mengherankan",
"mengejutkan",
"heran",
"ayunan",
"kisah",
"tinggi",
"sama",
"rasa",
"kecenderungan",
"teoritis",
"berpikir",
"pikir",
"warna",
"menyentuh",
"menyentuh",
"transparansi",
"transparan",
"mengangkut",
"diaudit",
"ucapan-ucapan",
"melihat",
"sudutpandang",
"pandangan",
"vokal",
"bau",
"yeah"]}