{"positif" : ["%-)",
"(-:",
"(:",
"(^",
"(^-^)",
"(^.^)",
"(^_^)",
"(o:",
"--^--@",
"0:)",
"8)",
":)",
":-)",
":-*",
":-d",
":-p",
":-}",
":3",
":9",
":]",
":b)",
":d",
":o)",
":p",
":x",
";^)",
"<3 ",
"<3",
"=)",
"=]",
">:)",
">:d",
">=d",
"@}->--",
"^)",
"^_^",
"a+",
"acunganjempol",
"adaptif",
"adil",
"afinitas",
"afirmasi",
"agilely",
"agung",
"ahli",
"ahlinya",
"ajaib",
"aklamasi",
"akomodatif",
"akurat",
"alammimpi",
"alhamdulillah",
"allahuakbar",
"altruistis",
"aman",
"amanah",
"amat",
"ambisius",
"andal",
"aneh",
"anggun",
"anginsepoi-sepoi",
"angkat",
"antusias",
"antusiasme",
"apik",
"apresiasi",
"asli",
"aspirasi",
"asyik",
"bagos",
"bagus",
"bahagia",
"baik",
"baikdiposisikan",
"baiksekali",
"baik-baik",
"bakat",
"bangga",
"bantuan",
"banyak",
"banyakakal",
"barangbaru",
"batupermata",
"bebas",
"bebasmasalah",
"bebaspulsa",
"bebasrasasakit",
"bebasresiko",
"bekerja",
"bekerjakeras",
"belaskasihan",
"benar",
"benar-benar",
"bengal",
"beradaptasi",
"beralasan",
"berani",
"berapi",
"berarti",
"berbaikhati",
"berbakat",
"berbesarhati",
"berbudiluhur",
"bercacat",
"bercahaya",
"bercanda",
"bercita-cita",
"berdayacipta",
"berdebar",
"berdedikasi",
"berdikari",
"berempati",
"bergairah",
"bergaya",
"bergema",
"bergembira",
"bergembirasekali",
"bergengsi",
"bergizi",
"berguna",
"berharga",
"berhasil",
"berhutang",
"berikut",
"berimbang",
"berisi",
"beristirahat",
"berjanji",
"berjasa",
"berjaya",
"berjenis",
"berjuang",
"berkapasitasbesar",
"berkat",
"berkeinginan",
"berkelakuanbaik",
"berkelanjutan",
"berkembang",
"berkeyakinan",
"berkilau",
"berkilauan",
"berkualitas",
"berlangsungmudah",
"berlimpah",
"berlimpah-limpah",
"bermaksudbaik",
"bermanfaat",
"bermanuver",
"bermartabat",
"bernilai",
"berpendidikan",
"berpendidikanbaik",
"berpengalaman",
"berpengaruh",
"berpengetahuanluas",
"berpijar",
"bersatu",
"bersediamelakukan",
"bersemangat",
"bersemangatmeluap-luap",
"bersenang-senang",
"bersendagurau",
"berseri",
"bersifatdermawan",
"bersifatmendamaikan",
"bersih",
"bersinar",
"bersorak",
"bersubsidi",
"bersukacita",
"bersukaria",
"bersyukur",
"bertanggungjawab",
"bertekun",
"berterimakasih",
"beruntung",
"berwarnaria",
"berwawasan",
"besar",
"besarsekali",
"biayarendah",
"bijak",
"bijaksana",
"bikincemburu",
"bimbingan",
"bintangrock",
"bisadigunakan",
"bisaditerapkan",
"bonus",
"boros",
"brilian",
"cahaya",
"cahayaredup",
"cakap",
"cantik",
"cashbacks",
"cekatan",
"cemas",
"cemerlang",
"cepat",
"cerah",
"cerdas",
"cerdik",
"cergas",
"cermat",
"cetar",
"cetarmembahana",
"cinta",
"cocok",
"contoh",
"cukup",
"cukupbesar",
"cukuplah",
"damai",
"dapatdiandalkan",
"dapatdicapai",
"dapatdiganti",
"dapatdipercaya",
"dapatdiraih",
"dapatdisesuaikan",
"dayatarik",
"denganmewah",
"dengansenanghati",
"dengansopan",
"dermawan",
"dewasa",
"diakses",
"diakui",
"diam",
"dianggapbaik",
"dibaca",
"dibebaskan",
"diberikan",
"dibersihkan",
"dibuatdenganbaik",
"dicapai",
"didominasi",
"didukung",
"diganggugugat",
"digantiolehpengguna",
"digunakan",
"dihargai",
"diinginkan",
"diizinkan",
"dikelola",
"dikeloladenganbaik",
"dikembalikan",
"dilayari",
"dilengkapi",
"dilepas",
"dilihat",
"dimenangkan",
"dimengerti",
"dinamis",
"diperbaharui",
"dipercaya",
"diperoleh",
"diplomatik",
"dipoles",
"direformasi",
"direkomendasikan",
"diremajakan",
"direstrukturisasi",
"disahkan",
"disayangi",
"disederhanakan",
"disubsidi",
"ditambahlagi",
"ditegakkan",
"diterimadenganbaik",
"ditingkatkan",
"diverifikasi",
"dorongan",
"duanya",
"dukung",
"dukungan",
"durianruntuh",
"edukatif",
"efektif",
"efektivitas",
"efisien",
"egois",
"ekonomis",
"ekstase",
"elastis",
"elegan",
"elite",
"emas",
"empati",
"enak",
"enchantingly",
"energi",
"ergonomis",
"etis",
"euforia",
"evaluatif",
"examplar",
"fajar",
"fantastis",
"fasih",
"fav",
"fave",
"favorit",
"fenomenal",
"firdaus",
"fleksibel",
"fleksibilitas",
"futuristik",
"gagah",
"gaib",
"gainfully",
"gairah",
"gamblang",
"gembira",
"gembiraluarbiasa",
"gembirasekali",
"gemuk",
"gesit",
"giat",
"gigih",
"gokil",
"gratis",
"gurih",
"habis",
"hadiah",
"hakistimewa",
"halal",
"halus",
"handal",
"handier",
"hangat",
"hargadiri",
"hargarendah",
"harmoni",
"harmonis",
"harta",
"harum",
"hasilkarya",
"hasilterbaik",
"hati",
"hati-hati",
"hebat",
"hemat",
"hematbiaya",
"hematenergi",
"heran",
"heroik",
"hore",
"horee",
"hormat",
"hubungan",
"hujanes",
"iba",
"ideal",
"idealnya",
"idola",
"ikhwan",
"ilahi",
"ilu",
"imajinatif",
"iman",
"imut",
"indah",
"individual",
"infalibilitas",
"inovasi",
"inovatif",
"inspirasi",
"inspirasional",
"inspiratif",
"instrumental",
"integral",
"intelijen",
"intim",
"intrik",
"intuitif",
"irama",
"iri",
"istimewa",
"isyarat",
"jaminan",
"jaminanmutu",
"janji",
"jawa",
"jelas",
"jempol",
"jempolan",
"jenaka",
"jenius",
"juara",
"jujur",
"kagum",
"kanan",
"karisma",
"karismatik",
"karya",
"kasihsayang",
"kaya",
"kayafitur",
"keadaanygsebenarnya",
"keadilan",
"keagungan",
"keajaiban",
"keanggunan",
"keangkeran",
"keaslian",
"kebahagiaan",
"kebaikan",
"kebajikan",
"kebal",
"kebanggaan",
"kebangkitan",
"kebaruan",
"kebebasan",
"kebenaran",
"keberanian",
"keberhasilan",
"keberlanjutan",
"kebersamaan",
"kebersihan",
"keberuntungan",
"kebesaran",
"kebetulan",
"kebijaksanaan",
"kecakapan",
"kecantikan",
"kecemerlangan",
"kecepatan",
"kecerdasan",
"kecerdikan",
"keemasan",
"keenakan",
"kegairahan",
"kegembiraan",
"kegembiraanygmeluap-luap",
"kehangatan",
"keheranan",
"keindahan",
"keinginan",
"keintiman",
"kejayaan",
"kejelasan",
"kejujuran",
"kekaguman",
"kekal",
"kekalahan",
"kekasih",
"kekencangan",
"kelancaranberbicara",
"kelangsunganhidup",
"kelasatas",
"kelassatu",
"kelasutama",
"kelayakan",
"kelezatan",
"kelimpahan",
"kelincahan",
"kelipredup",
"kelucuan",
"keluwesan",
"kemajuan",
"kemakmuran",
"kemampuan",
"kemantapan",
"kemasyhuran",
"kematangan",
"kemauanbaik",
"kemegahan",
"kemenangan",
"kemewahan",
"kemudahan",
"kemurahanhati",
"kenangan",
"kenikmatan",
"kenyamanan",
"kepanjanganakaldaya",
"kepentingan",
"kepercayaan",
"keperkasaan",
"kepincut",
"kepuasan",
"kepuasandiri",
"keramahan",
"keramat",
"keranjingan",
"kerelaan",
"keren",
"kerendahanhati",
"keriangan",
"keriuhandipawai",
"kerubin",
"kesabaran",
"kesalehan",
"kesatuan",
"kesayangan",
"kesehatan",
"kesejahteraan",
"kesembronoan",
"kesempurnaan",
"kesenangan",
"kesetiaan",
"kesopanan",
"kestabilan",
"kesucian",
"kesukaan",
"kesungguhan",
"ketabahan",
"ketajaman",
"ketegasan",
"keteguhan",
"ketekunan",
"ketenangan",
"ketenaran",
"keterbukaan",
"ketercocokan",
"ketidakberpihakan",
"ketrampilan",
"ketulusan",
"keuletan",
"keunggulan",
"keuntungan",
"kewaspadaan",
"khusus",
"kilau",
"klasik",
"koheren",
"koherensi",
"komitmen",
"kompak",
"kompetitif",
"komplementer",
"konsisten",
"konstruktif",
"kontinuitas",
"kontras",
"kontribusi",
"kooperatif",
"koperasi",
"korekapi",
"kreatif",
"kualitasterbaik",
"kualitastinggi",
"kuasa",
"kuat",
"kuepanas",
"kukuh",
"kurus",
"lagu",
"lancar",
"landasan",
"lapang",
"laudably",
"layak",
"lebihbaik",
"lebihbaikdariperkiraan",
"lebihcemerlangdari",
"lebihcepat",
"lebihdikenal",
"lebihdisukai",
"lebihhangat",
"lebihkencang",
"lebihkeras",
"lebihmemilih",
"lebihmemilih",
"lebihmurah",
"lebihsuka",
"lebihtenang",
"ledakan",
"legendaris",
"lemahlembut",
"lembut",
"lezat",
"licin",
"lincah",
"liris",
"logis",
"loyalitas",
"luarbiasa",
"luas",
"lucu",
"lumayan",
"luwes",
"maaf",
"mahal",
"mahir",
"main-main",
"maju",
"makanan",
"makmur",
"malaikat",
"mampu",
"manfaat",
"manis",
"manissekali",
"manja",
"manjur",
"mantab",
"manusiawi",
"mapan",
"martabat",
"master",
"masukakal",
"matang",
"mati-matian",
"maukalah",
"mawas",
"megah",
"mekar",
"melampaui",
"melebihi",
"melengkapi",
"melindungi",
"meluruskan",
"memadai",
"memanggil",
"memantapkan",
"memastikan",
"membandingikeindahanpuisi",
"membantu",
"membara",
"membayar",
"membebaskan",
"memberanikan",
"memberdayakan",
"memberkati",
"membesarkanhati",
"membesut",
"membiasakan",
"membuatlebihbaikdr",
"membudayakan",
"membujuk",
"membuktikan",
"memelihara",
"memeluk",
"memenuhi",
"memenuhisyarat",
"memeriahkan",
"memfavoritkan",
"memihak",
"memikat",
"memikathati",
"memimpin",
"memperbaiki",
"memperbaikiakhlak",
"mempercantik",
"mempercayakan",
"memperjelas",
"memperkaya",
"memperkuat",
"mempermanis",
"memperolehkembali",
"mempesona",
"memuaskan",
"memudahkan",
"memuja",
"memujanya",
"memuji",
"memuji-muji",
"memuji-mujiterlebih-lebihan",
"memukau",
"memuliakan",
"memulihkan",
"memurnikan",
"menakjubkan",
"menambah",
"menang",
"menantang",
"menarik",
"menariknya",
"menawan",
"mencengangkan",
"mencintai",
"mencukupi",
"mendalam",
"mendamaikan",
"mendapatkan",
"mendebarkan",
"mendewakan",
"mendominasi",
"mendorong",
"mendukung",
"menebus",
"menegakkan",
"menegaskan",
"menegaskanlagi",
"menenangkan",
"menentukan",
"menerangi",
"menerangkan",
"menerima",
"menerobos",
"mengagetkan",
"mengagumi",
"mengagumkan",
"mengagungkan",
"mengakali",
"mengalahkan",
"menganggap",
"mengangkat",
"menganjurkan",
"mengasyikan",
"mengasyikkan",
"mengatasi",
"mengecoh",
"mengejutkan",
"mengerti",
"mengesahkan",
"mengesankan",
"menggairahkan",
"menggelenyar",
"menggelikan",
"menggelitik",
"menggembirakan",
"menggemparkan",
"menggetarkan",
"menggiurkan",
"menggoda",
"menggugah",
"menghadiahkan",
"menghaluskan",
"menghargai",
"mengharukan",
"mengherankan",
"menghibur",
"menghidupkan",
"menghormat",
"menghormati",
"mengidealkan",
"mengidolakan",
"mengilhami",
"menginginkan",
"mengisyaratkan",
"menguasai",
"mengucapkanselamat",
"mengundang",
"mengungguli",
"menguntungkan",
"menikmati",
"menimbulkanperasaancinta",
"menimbulkanrasaantusias",
"meninggikan",
"meningkat",
"meningkatkan",
"menitipkan",
"menjamin",
"menjanjikan",
"menonjol",
"mentereng",
"menunjukkangejala",
"menuruthak",
"menyalip",
"menyambut",
"menyanjung",
"menyaring",
"menyederhanakan",
"menyegarkan",
"menyelaraskan",
"menyelesaikan",
"menyembuhkan",
"menyenangkan",
"menyerahkan",
"menyeringai",
"menyetujui",
"menyolok",
"menyubsidi",
"menyukai",
"menyusul",
"merangsang",
"merayakan",
"merayu",
"mereda",
"mereformasi",
"merekomendasikan",
"merelakan",
"meremajakan",
"merendahkan",
"merenung",
"merevitalisasi",
"merevolusi",
"merevolusionerkan",
"meriangkan",
"meringankan",
"meromantiskan",
"mewah",
"meyakinkan",
"minimresiko",
"modern",
"modis",
"montok",
"monumental",
"moralitas",
"muda",
"mudah",
"mudahdigunakan",
"mujarab",
"mukjizat",
"mulia",
"mulus",
"murah",
"murahbanget",
"murahhati",
"murni",
"mutakhir",
"nasib",
"nikmat",
"non-kekerasan",
"nyaman",
"nyaring",
"obatuntuksegalapenyakit",
"obsesi",
"optimal",
"optimis",
"optimisme",
"otoriter",
"padat",
"pahlawan",
"pahlawanwanita",
"palingberuntung",
"palingdikenal",
"panas",
"pandaiberbicara",
"panorama",
"pantas",
"pasien",
"pasti",
"pasukanpenjagaperdamaian",
"patriot",
"patriotik",
"patuh",
"pedih",
"peka",
"pelamun",
"pelindung",
"pelonggaran",
"pembaruan",
"pembebasan",
"pembela",
"pemberdayaan",
"pemberiantuhan",
"pembersih",
"pembetulan",
"pemecahmasalah",
"pemenang",
"pemenuhan",
"pemulihan",
"penampilanterbaik",
"pencerahan",
"pencinta",
"pendewaan",
"pendukung",
"penebusan",
"penegasankembali",
"penentuannasibsendiri",
"penerima",
"pengagum",
"pengampunan",
"pengangkatan",
"pengaruh",
"pengasih",
"pengasuhan",
"pengembaliandana",
"penggemar",
"penghargaan",
"penghargaan",
"penghemat",
"penghematan",
"penghematanbiaya",
"penghiburan",
"penghormatan",
"penguasaan",
"peninggianderajat",
"peningkatan",
"penipu",
"penjualanterbaik",
"penolong",
"penting",
"penuh",
"penuhgaya",
"penuhharapan",
"penuhkasih",
"penuhkebahagiaan",
"penuhkebajikan",
"penuhkegembiraan",
"penuhkepercayaan",
"penuhpengharapan",
"penuhperasaan",
"penuhperhatian",
"penuhperistiwa",
"penuhsemangat",
"penuhsukacita",
"penyayang",
"penyelamat",
"penyuburan",
"perasaankagum",
"perasaansukacita",
"perayaan",
"perbaikan",
"perbedaan",
"perdamaian",
"perdanamenteri",
"perhatian",
"periang",
"perjanjian",
"perlawanan",
"perlindungan",
"permai",
"permata",
"persahabatan",
"persetujuan",
"persik",
"personalisasi",
"pertamadikelas",
"pertumbuhantercepat",
"pesona",
"petualang",
"piala",
"pikiran-bertiup",
"pilihan",
"pintar",
"plus",
"populer",
"portabel",
"positif",
"preferensi",
"prestasi",
"pro",
"proaktif",
"prodigi",
"produktif",
"progresif",
"promotor",
"puas",
"puitis",
"pujian",
"pukulanygtdkkeras",
"pulih",
"puncak",
"rahmat",
"rajin",
"rak",
"ramah",
"ramahtamah",
"rangsang",
"rapi",
"rasahormat",
"rasamanis",
"rasional",
"rata",
"realisasi",
"realistis",
"reformasi",
"rekomendasi",
"rela",
"reputasi",
"reseptif",
"resikorendah",
"responsif",
"restrukturisasi",
"revolusioner",
"riagembira",
"riang",
"ringan",
"ringkas",
"rohani",
"rokstar",
"romantis",
"rujuk",
"rumit",
"sabar",
"sah",
"saleh",
"salut",
"sangat",
"sangatbaik",
"sangatberharga",
"sangatindah",
"sangatmemuaskan",
"sangatmenarik",
"sangatmenyayangi",
"sangatmudah",
"sangatpenting",
"sangatrajin",
"sangatsopan",
"sangattepat",
"sanjungan",
"sarankan",
"sayang",
"sayanganak",
"secarakuat",
"secaramenyenangkan",
"secaraterbuka",
"secepatnya",
"sederhana",
"segar",
"segera",
"sehat",
"seimbang",
"seksi",
"selamat",
"selamat",
"selayaknya",
"selektif",
"semakinlembut",
"semakinmakmur",
"semangat",
"sempurna",
"semuanya",
"senang",
"sengaja",
"sensasi",
"sensasional",
"senyum",
"sepanjangmasa",
"sepantasnya",
"sepatutnya",
"sepele",
"sepenuhhati",
"seperti",
"sepertimalaikat",
"sepertipatung",
"sepertiraja",
"seranganbalik",
"serbacepat",
"serbaguna",
"sesaknapas",
"sesuai",
"sesuaidenganmodeterakhir",
"sesungguhnya",
"setajamsilet",
"setia",
"setuju",
"sewajarnya",
"sewenang-wenang",
"siap",
"sigap",
"sihir",
"sikaptenang",
"silakan",
"silau",
"simpatisan",
"sokaksi",
"solidaritas",
"sopan",
"sorakkegirangan",
"sosial",
"spektakuler",
"spontan",
"sporty",
"stabil",
"stabilitas",
"sub",
"subhanallah",
"subsidi",
"substantif",
"subur",
"suci",
"sukacita",
"sukses",
"sulit",
"sungguh",
"sungguh-sungguh",
"super",
"supremasi",
"surealis",
"surga",
"surgawi",
"swasembada",
"swatantra",
"syukur",
"taat",
"taathukum",
"tabah",
"tabungan",
"tahankarat",
"tahanlama",
"tajam",
"takadasalahnya",
"takadataranya",
"takberbahaya",
"takbercacat",
"takbersuara",
"takbersyarat",
"takdapatdisangsikan",
"takdiragukanlagi",
"takdisengaja",
"takkenaltakut",
"takperludipersoalkan",
"taktahumalu",
"takterbantahkan",
"takterbatas",
"taktergantikan",
"takterhitung",
"takterkalahkan",
"takterkendalikan",
"takterlupakan",
"takternilai",
"takterpadai",
"taktertahankan",
"takdir",
"takjub",
"takzim",
"tampak",
"tampan",
"tanda",
"tangankebawah",
"tangkas",
"tanpacela",
"tanpadosa",
"tanpamalu-malu",
"tanparasasakit",
"tanparasatakut",
"tanpatenaga",
"tawar",
"tawaran",
"tdkberbahaya",
"tegas",
"teguh",
"teladan",
"teliti",
"temanmu",
"tenang",
"tepat",
"tepatpadawaktunya",
"tepatwaktu",
"tepuktangansorak",
"terampil",
"terang",
"terangbenderang",
"teranyar",
"terbaik",
"terbaru",
"terbatas",
"terbebani",
"terberat",
"terbersih",
"terbesar",
"terbukti",
"tercapai",
"tercengang",
"tercepat",
"tercinta",
"terdengar",
"terdepan",
"terelakkan",
"tergantikan",
"terhormat",
"terima",
"terimakasih",
"terjamin",
"terjangkau",
"terkalahkan",
"terkejar",
"terkejut",
"terkekang",
"terkemuka",
"terkenal",
"terkenaldidunia",
"terkuat",
"terlalumemanjakan",
"termotivasi",
"termudah",
"termurah",
"terobosan",
"terompet",
"terpadu",
"terpanas",
"terpelajar",
"terpengaruh",
"terpenting",
"terpercaya",
"terpesona",
"terpuji",
"terrifically",
"tersayang",
"tersedia",
"tersenyum",
"tertarik",
"tertib",
"tertinggi",
"terusterang",
"terutama",
"tetap",
"tiadabandingan",
"tiadaduanya",
"tidakegois",
"tidakternilai",
"tipis",
"tokoh",
"top",
"trendi",
"tulangpunggung",
"tulus",
"tumbuhcepat",
"tunggudulu",
"uangkembali",
"ulung",
"unggul",
"unggulan",
"unik",
"untung",
"untungnya",
"utuh",
"uye",
"variasi",
"visioner",
"wah",
"wahyu",
"warna-warni",
"waspada",
"whooa",
"whooooa",
"wow",
"wow",
"yakin",
"yay",
"yeah",
"yihaa"]}
